{
    "KPlugin": {
        "Description": "Weather forecast by German Weather Service",
        "Description[ar]": "نشرة الطقس الجوية من الأرصاد الجوية الألمانية",
        "Description[az]": "Almaniya Hava Xidməti tərəfindən hava məlumatı",
        "Description[ca]": "Previsió meteorològica del Servei meteorològic alemany",
        "Description[cs]": "Předpověď počasí od Německé informační služby o počasí",
        "Description[de]": "Wettervorhersage vom Deutschen Wetterdienst",
        "Description[en_GB]": "Weather forecast by German Weather Service",
        "Description[es]": "Previsión meteorológica del servicio meteorológico alemán",
        "Description[fr]": "Prévisions météorologiques du service de météorologie d'Allemagne",
        "Description[hu]": "Időjárás-előrejelzés a Német Meteorológiai Szolgálattól",
        "Description[ia]": "Prevision Meteorologic per Servicio Meteorologic de Germania",
        "Description[it]": "Previsioni meteo del servizio meteorologico tedesco",
        "Description[lt]": "Orų prognozės iš Vokietijos orų tarnybos",
        "Description[nl]": "Weersvoorspelling door Duitse weerdienst",
        "Description[nn]": "Vêrmelding frå German Weather Service",
        "Description[pa]": "ਜਰਮਨ ਮੌਸਮ ਸੇਵਾ ਵਲੋਂ ਮੌਸਮ ਭਵਿੱਖਬਾਣੀ",
        "Description[pl]": "Prognoza pogody wg niemieckiej usługi pogodowej",
        "Description[pt_BR]": "Previsão do tempo pelo Serviço Meteorológico Alemão",
        "Description[ru]": "Прогноз погоды от немецкой службы погоды",
        "Description[sk]": "Predpoveď počasia z German Weather Service",
        "Description[sl]": "Vremenska napoved Nemške vremenske službe",
        "Description[sv]": "Väderprognos av Tyska vädertjänsten",
        "Description[uk]": "Прогноз погоди від Німецької служби погоди",
        "Description[vi]": "Dự báo thời tiết của Dịch vụ Thời tiết Đức",
        "Description[x-test]": "xxWeather forecast by German Weather Servicexx",
        "Description[zh_CN]": "德国天气服务提供的天气预报",
        "Icon": "noneyet",
        "Id": "dwd",
        "Name": "German Weather Service",
        "Name[ar]": "خدمة الأرصاد الجوية الألمانية",
        "Name[az]": "Almaniya Hava Xidməti",
        "Name[ca]": "Servei meteorològic alemany",
        "Name[cs]": "Německá informační služba o počasí",
        "Name[de]": "Deutscher Wetterdienst",
        "Name[en_GB]": "German Weather Service",
        "Name[es]": "Servicio meteorológico alemán",
        "Name[fi]": "Saksalainen sääpalvelu",
        "Name[fr]": "service de météorologie d'Allemagne",
        "Name[hu]": "Német Meteorológiai Szolgálat",
        "Name[ia]": "Servicio Meteorologic de Germania",
        "Name[it]": "Servizio meteorologico tedesco",
        "Name[ko]": "독일 기상 서비스",
        "Name[lt]": "Debian orų tarnyba",
        "Name[nl]": "Duitse weerdienst",
        "Name[nn]": "Tysk vêrteneste",
        "Name[pa]": "ਜਰਮਨ ਮੌਸਮ ਸਰਵਿਸ",
        "Name[pl]": "Niemiecka usługa pogodowa",
        "Name[pt_BR]": "Serviço Meteorológico Alemão",
        "Name[ru]": "Немецкая служба погоды",
        "Name[sk]": "German Weather Service",
        "Name[sl]": "Nemška vremenska služba",
        "Name[sv]": "Tyska vädertjänsten",
        "Name[ta]": "ஜெர்மன் வானிலை சேவை",
        "Name[uk]": "Німецька служба погоди",
        "Name[vi]": "Dịch vụ Thời tiết Đức",
        "Name[x-test]": "xxGerman Weather Servicexx",
        "Name[zh_CN]": "德国天气服务"
    },
    "X-KDE-ParentApp": "weatherengine"
}
