{
    "KPlugin": {
        "Authors": [
            {
                "Email": "kde@privat.broulik.de",
                "Name": "Kai Uwe Broulik",
                "Name[ar]": "Kai Uwe Broulik",
                "Name[az]": "Kai Uwe Broulik",
                "Name[ca]": "Kai Uwe Broulik",
                "Name[cs]": "Kai Uwe Broulik",
                "Name[de]": "Kai Uwe Broulik",
                "Name[en_GB]": "Kai Uwe Broulik",
                "Name[es]": "Kai Uwe Broulik",
                "Name[fi]": "Kai Uwe Broulik",
                "Name[fr]": "Kai Uwe Broulik",
                "Name[hu]": "Kai Uwe Broulik",
                "Name[ia]": "Kai Uwe Broulik",
                "Name[it]": "Kai Uwe Broulik",
                "Name[lt]": "Kai Uwe Broulik",
                "Name[nl]": "Kai Uwe Broulik",
                "Name[nn]": "Kai Uwe Broulik",
                "Name[pl]": "Kai Uwe Broulik",
                "Name[pt_BR]": "Kai Uwe Broulik",
                "Name[ru]": "Kai Uwe Broulik",
                "Name[sk]": "Kai Uwe Broulik",
                "Name[sl]": "Kai Uwe Broulik",
                "Name[sv]": "Kai Uwe Broulik",
                "Name[uk]": "Kai Uwe Broulik",
                "Name[vi]": "Kai Uwe Broulik",
                "Name[x-test]": "xxKai Uwe Broulikxx",
                "Name[zh_CN]": "Kai Uwe Broulik"
            }
        ],
        "Category": "System Information",
        "Description": "System monitor Widget that shows the total CPU usage",
        "Description[ar]": "أداة مراقبة النظام التي تعرض مجموع استخدام المعالج",
        "Description[az]": "Sistem monitoru vidjeti ümumi CPU istifadəsini göstərir",
        "Description[ca]": "Giny del monitor del sistema que mostra l'ús total de la CPU",
        "Description[en_GB]": "System monitor Widget that shows the total CPU usage",
        "Description[es]": "Elemento gráfico del monitor del sistema que muestra el uso total de CPU",
        "Description[fr]": "Composant graphique de surveillance du système, affichant l'utilisation globale du processeur.",
        "Description[hu]": "Rendszermonitor elem, amely a teljes processzorhasználatot mutatja",
        "Description[ia]": "Widget de supervision de systema que monstra le uso total de CPU",
        "Description[it]": "Oggetto di monitoraggio del sistema che mostra l'utilizzo totale del processore",
        "Description[lt]": "Sistemos prižiūryklės valdiklis, kuris rodo bendrą procesoriaus naudojimą",
        "Description[nl]": "Systeemmonitorwidget die het totale gebruik toont de CPU toont",
        "Description[nn]": "System­overvaking som viser total prosessorlast",
        "Description[pa]": "ਕੁੱਲ CPU ਵਰਤੋਂ ਵਿਖਾਉਣ ਵਾਲਾ ਸਿਸਟਮ ਮਾਨੀਟਰ ਵਿਜੈੱਟ",
        "Description[pl]": "Element interfejsu, który pokazuje całkowite wykorzystanie procesora",
        "Description[pt_BR]": "Widget monitor do sistema que mostra o uso total da CPU",
        "Description[ru]": "Мониторинг общей загрузки процессора",
        "Description[sk]": "Miniaplikácia monitorovania systému, ktorá zobrazuje celkové využitie CPU",
        "Description[sl]": "Gradnik sistemskega monitorja, ki prikazuje celotno rabo CPE",
        "Description[sv]": "Grafisk systemövervakningskomponent som visar total processoranvändning",
        "Description[ta]": "மொத்த CPU பயன்பாட்டைக் காட்டும் பிளாஸ்மாய்ட்",
        "Description[uk]": "Віджет нагляду за системою, який показує загальне використання процесора",
        "Description[vi]": "Phụ kiện giám sát hệ thống cho biết tổng lượng dùng CPU",
        "Description[x-test]": "xxSystem monitor Widget that shows the total CPU usagexx",
        "Description[zh_CN]": "显示总 CPU 使用情况的系统监视部件",
        "EnabledByDefault": true,
        "FormFactors": [
            "desktop"
        ],
        "Icon": "cpu",
        "Id": "org.kde.plasma.systemmonitor.cpu",
        "License": "GPL-2.0+",
        "Name": "Total CPU Use",
        "Name[ar]": "مجموع استخدام المعالج",
        "Name[az]": "Ümumi MP istifadəsi",
        "Name[ca]": "Ús total de CPU",
        "Name[cs]": "Celkové použití CPU",
        "Name[da]": "Samlet CPU-brug",
        "Name[de]": "Verwendung gesamter Prozessor",
        "Name[en_GB]": "Total CPU Use",
        "Name[es]": "Uso total de CPU",
        "Name[et]": "Protsessori kogukasutus",
        "Name[eu]": "PUZ erabileraren guztizkoa",
        "Name[fi]": "Suorittimen kokonaiskäyttö",
        "Name[fr]": "Utilisation globale du processeur",
        "Name[hi]": "कुल सीपीयू उपयोग",
        "Name[hu]": "Teljes processzorhasználat",
        "Name[ia]": "Uso total de CPU",
        "Name[it]": "Utilizzo totale CPU",
        "Name[ko]": "총 CPU 사용량",
        "Name[lt]": "Bendras procesoriaus naudojimas",
        "Name[ml]": "ആകെ സിപിയു ഉപയോഗം",
        "Name[nl]": "Totaal CPU-gebruik",
        "Name[nn]": "Total prosessorlast",
        "Name[pa]": "ਕੁੱਲ CPU ਵਰਤੋ",
        "Name[pl]": "Całkowite użycie procesora",
        "Name[pt]": "Carga Total do CPU",
        "Name[pt_BR]": "Uso total da CPU",
        "Name[ro]": "Utilizare totală procesor",
        "Name[ru]": "Общая загрузка ЦП",
        "Name[sk]": "Celkové využitie CPU",
        "Name[sl]": "Celotna raba CPE",
        "Name[sv]": "Total processoranvändning",
        "Name[ta]": "மொத்த CPU பயன்பாட்டு",
        "Name[tr]": "Toplam CPU kullanımı",
        "Name[uk]": "Загальне використання процесора",
        "Name[vi]": "Tổng lượng dùng CPU",
        "Name[x-test]": "xxTotal CPU Usexx",
        "Name[zh_CN]": "总 CPU 使用情况",
        "Name[zh_TW]": "總 CPU 用量",
        "ServiceTypes": [
            "Plasma/Applet"
        ],
        "Version": "1.0",
        "Website": "https://www.kde.org/plasma-desktop"
    },
    "X-Plasma-API": "declarativeappletscript",
    "X-Plasma-MainScript": "ui/main.qml",
    "X-Plasma-Provides": [
        "org.kde.plasma.systemmonitor"
    ],
    "X-Plasma-RootPath": "org.kde.plasma.systemmonitor"
}
