{
    "KPlugin": {
        "Authors": [
            {
                "Email": "plasma-devel@kde.org",
                "Name": "The Plasma Team",
                "Name[ar]": "فريق بلازما",
                "Name[az]": "Plasma komandası",
                "Name[ca]": "L'equip del Plasma",
                "Name[cs]": "Team Plasma",
                "Name[de]": "Das Plasma-Team",
                "Name[en_GB]": "The Plasma Team",
                "Name[es]": "El equipo de Plasma",
                "Name[fi]": "Plasma-työryhmä",
                "Name[fr]": "L'équipe de Plasma",
                "Name[hu]": "A Plasma fejlesztői",
                "Name[ia]": "Le equipa de Plasma",
                "Name[it]": "La squadra di Plasma",
                "Name[lt]": "Plasma komanda",
                "Name[nl]": "Het team van Plasma",
                "Name[nn]": "Utviklingslaget for Plasma",
                "Name[pa]": "ਪਲਾਜ਼ਮਾ ਟੀਮ",
                "Name[pl]": "Zespół Plazmy",
                "Name[pt_BR]": "Temas do Plasma",
                "Name[ru]": "Команда разработчиков Plasma",
                "Name[sk]": "Plasma Tím",
                "Name[sl]": "Ekipa Plasme",
                "Name[sv]": "Plasma-gruppen",
                "Name[ta]": "பிளாஸ்மா குழு",
                "Name[uk]": "Команда розробників Плазми",
                "Name[vi]": "Đội Plasma",
                "Name[x-test]": "xxThe Plasma Teamxx",
                "Name[zh_CN]": "Plasma 开发团队"
            }
        ],
        "Category": "System Information",
        "Description": "Reserve empty spaces within the panel.",
        "Description[ar]": "يحجز مساحات فارغة في اللوحة.",
        "Description[az]": "Paneldə boş yeri tutun.",
        "Description[ca]": "Reserva espais buits en el plafó.",
        "Description[cs]": "Rezervovat prázdné místo v panelu.",
        "Description[de]": "Freien Platz in der Kontrollleiste reservieren.",
        "Description[en_GB]": "Reserve empty spaces within the panel.",
        "Description[es]": "Reservar espacios vacíos en el panel.",
        "Description[fr]": "Réserver des espaces vides dans le panneau.",
        "Description[hu]": "Üres helyet választ le egy panelen belül.",
        "Description[ia]": "Reserva spatios vacue intra le pannello.",
        "Description[it]": "Lascia spazi vuoti nel pannello.",
        "Description[lt]": "Rezervuoti skydelyje tuščią vietą.",
        "Description[nl]": "Reserveer lege ruimte in het paneel.",
        "Description[nn]": "Reserver tomme plassar i panelet.",
        "Description[pa]": "ਪੈਨਲ ਵਿੱਚ ਖਾਲੀ ਥਾਂ ਬਦਲੋ।",
        "Description[pl]": "Rezerwuje wolną przestrzeń na panelu.",
        "Description[pt_BR]": "Reserva espaços vazios no painel.",
        "Description[ru]": "Занимает свободное место на панели",
        "Description[sk]": "Rezervuje prázdne miesto v paneli.",
        "Description[sl]": "Rezerviraj prazne prostorčke na plošči.",
        "Description[sv]": "Reservera tomt utrymme inne i panelen.",
        "Description[ta]": "பலகையில் காலியான இடைவெளிகளை இடும்",
        "Description[uk]": "Створює прогалини на панелі.",
        "Description[vi]": "Giữ các khoảng trống trong bảng.",
        "Description[x-test]": "xxReserve empty spaces within the panel.xx",
        "Description[zh_CN]": "在面板中预留空白。",
        "EnabledByDefault": true,
        "Id": "org.kde.plasma.panelspacer",
        "License": "GPL-2.0+",
        "Name": "Panel Spacer",
        "Name[ar]": "مُباعِد لوحة",
        "Name[az]": "Panel Ayırıcısı",
        "Name[bg]": "Разделител за панела",
        "Name[bs]": "Panelska razmaknica",
        "Name[ca@valencia]": "Espaiador del plafó",
        "Name[ca]": "Espaiador del plafó",
        "Name[cs]": "Mezera v panelu",
        "Name[da]": "Panel-afstandsstykke",
        "Name[de]": "Abstandhalter",
        "Name[el]": "Κενό πίνακα",
        "Name[en_GB]": "Panel Spacer",
        "Name[eo]": "Spacigilo de Panelo",
        "Name[es]": "Espaciador",
        "Name[et]": "Paneeliruumi korraldaja",
        "Name[eu]": "Paneleko bereizlea",
        "Name[fi]": "Paneelivälilevy",
        "Name[fr]": "Espaceur de tableau de bord",
        "Name[fy]": "Paniel spaasje",
        "Name[ga]": "Scarthóir Painéil",
        "Name[gl]": "Espazador do panel",
        "Name[he]": "מרווח לוח",
        "Name[hi]": "पैनल परिवर्तक",
        "Name[hr]": "Razmak na traci",
        "Name[hsb]": "Mjezota mjez panelemi",
        "Name[hu]": "Panelelválasztó",
        "Name[ia]": "Spatiator de pannello",
        "Name[id]": "Panel Spacer",
        "Name[is]": "Spjaldabil",
        "Name[it]": "Spaziatore del pannello",
        "Name[ja]": "パネルのスペーサー",
        "Name[kk]": "Панель бос орын бөлгіші",
        "Name[km]": "ចន្លោះ​បន្ទះ",
        "Name[kn]": "ಫಲಕ ಸ್ಪೇಸರ್",
        "Name[ko]": "패널 공백",
        "Name[lt]": "Skydelio skirtukas",
        "Name[lv]": "Paneļa atdalītājs",
        "Name[mai]": "पटल स्पेसर",
        "Name[mk]": "Разграничувач на панели",
        "Name[ml]": "പാളിയില്‍ ഒഴിഞ്ഞസ്ഥലമിടാന്‍",
        "Name[mr]": "पटल स्पेसर",
        "Name[nb]": "Avstandsholder for panel",
        "Name[nds]": "Paneel-Platzmaker",
        "Name[nl]": "Paneelscheider",
        "Name[nn]": "Panelmellomrom",
        "Name[pa]": "ਪੈਨਲ ਸਪੇਸਰ",
        "Name[pl]": "Odstęp w panelu",
        "Name[pt]": "Espaço do Painel",
        "Name[pt_BR]": "Espaçador do painel",
        "Name[ro]": "Spațiator panou",
        "Name[ru]": "Разделитель",
        "Name[si]": "පැනල ඉඩතැබීම",
        "Name[sk]": "Medzera v paneli",
        "Name[sl]": "Praznina za na pult",
        "Name[sr@ijekavian]": "панелска размакница",
        "Name[sr@ijekavianlatin]": "panelska razmaknica",
        "Name[sr@latin]": "panelska razmaknica",
        "Name[sr]": "панелска размакница",
        "Name[sv]": "Panelavskiljare",
        "Name[ta]": "பலகைக்கான இடைவெளி",
        "Name[th]": "ตัวสร้างพื้นที่ว่าง",
        "Name[tr]": "Panel Ayırıcı",
        "Name[ug]": "تاختا ئارىلىقى",
        "Name[uk]": "Розпірка панелі",
        "Name[vi]": "Khoảng trống bảng",
        "Name[wa]": "Separateu e scriftôr",
        "Name[x-test]": "xxPanel Spacerxx",
        "Name[zh_CN]": "面板间隙",
        "Name[zh_TW]": "面板間隔器",
        "ServiceTypes": [
            "Plasma/Applet"
        ],
        "Version": "1.0",
        "Website": "https://www.kde.org/plasma-desktop"
    },
    "NoDisplay": true,
    "X-Plasma-API": "declarativeappletscript",
    "X-Plasma-MainScript": "ui/main.qml"
}
