{
    "KPlugin": {
        "Authors": [
            {
                "Email": "kde@privat.broulik.de",
                "Name": "Kai Uwe Broulik",
                "Name[ar]": "Kai Uwe Broulik",
                "Name[az]": "Kai Uwe Broulik",
                "Name[ca]": "Kai Uwe Broulik",
                "Name[cs]": "Kai Uwe Broulik",
                "Name[de]": "Kai Uwe Broulik",
                "Name[en_GB]": "Kai Uwe Broulik",
                "Name[es]": "Kai Uwe Broulik",
                "Name[fi]": "Kai Uwe Broulik",
                "Name[fr]": "Kai Uwe Broulik",
                "Name[hu]": "Kai Uwe Broulik",
                "Name[ia]": "Kai Uwe Broulik",
                "Name[it]": "Kai Uwe Broulik",
                "Name[lt]": "Kai Uwe Broulik",
                "Name[nl]": "Kai Uwe Broulik",
                "Name[nn]": "Kai Uwe Broulik",
                "Name[pl]": "Kai Uwe Broulik",
                "Name[pt_BR]": "Kai Uwe Broulik",
                "Name[ru]": "Kai Uwe Broulik",
                "Name[sk]": "Kai Uwe Broulik",
                "Name[sl]": "Kai Uwe Broulik",
                "Name[sv]": "Kai Uwe Broulik",
                "Name[uk]": "Kai Uwe Broulik",
                "Name[vi]": "Kai Uwe Broulik",
                "Name[x-test]": "xxKai Uwe Broulikxx",
                "Name[zh_CN]": "Kai Uwe Broulik"
            }
        ],
        "Category": "System Information",
        "Description": "System monitor Widget that shows physical memory usage",
        "Description[ar]": "أداة مراقبة النظام التي تعرض استخدام الذاكرة الفعلية",
        "Description[az]": "Sistem monitoru vidjeti fiziki yaddaşın istifadəsini göstərir",
        "Description[ca]": "Giny del monitor del sistema que mostra l'ús de la memòria física",
        "Description[en_GB]": "System monitor Widget that shows physical memory usage",
        "Description[es]": "Elemento gráfico del monitor del sistema que muestra el uso de la memoria física",
        "Description[fr]": "Composant graphique de surveillance du système, affichant l'utilisation de la mémoire physique.",
        "Description[hu]": "A fizikai memória használati statisztikáit megjelenítő elem",
        "Description[ia]": "Widget de supervision de systema que monstra le uso de memoria physic",
        "Description[it]": "Oggetto di monitoraggio del sistema che mostra l'utilizzo della memoria fisica",
        "Description[lt]": "Sistemos prižiūryklės valdiklis, kuris rodo fizinės atminties naudojimą",
        "Description[nl]": "Systeemmonitorwidget die het gebruik van fysiek geheugen toont",
        "Description[nn]": "System­overvaking som viser bruk av fysisk minne",
        "Description[pl]": "Element interfejsu, który pokazuje wykorzystanie pamięci fizycznej",
        "Description[pt_BR]": "Widget monitor do sistema que mostra o uso da memória física",
        "Description[ru]": "Мониторинг использования физической памяти",
        "Description[sk]": "Miniaplikácia monitorovania systému, ktorá zobrazuje využitie fyzickej pamäte",
        "Description[sl]": "Gradnik sistemskega monitorja, ki prikazuje rabo fizičnega pomnilnika",
        "Description[sv]": "Grafisk systemövervakningskomponent som fysisk minnesanvändning",
        "Description[ta]": "நினைவின் பயன்பாட்டைக் காட்டும் பிளாஸ்மாய்ட்",
        "Description[uk]": "Віджет нагляду за системою, який показує використання фізичної пам'яті",
        "Description[vi]": "Phụ kiện giám sát hệ thống cho biết lượng dùng bộ nhớ vật lí",
        "Description[x-test]": "xxSystem monitor Widget that shows physical memory usagexx",
        "Description[zh_CN]": "显示物理内存使用情况的系统监视部件",
        "EnabledByDefault": true,
        "FormFactors": [
            "desktop"
        ],
        "Icon": "ksysguardd",
        "Id": "org.kde.plasma.systemmonitor.memory",
        "License": "GPL-2.0+",
        "Name": "Memory Usage",
        "Name[ar]": "استخدام الذاكرة",
        "Name[ast]": "Usu de la memoria",
        "Name[az]": "Yaddaş İstifadəsi",
        "Name[ca]": "Ús de memòria",
        "Name[cs]": "Spotřeba paměti",
        "Name[da]": "Hukommelsesforbrug",
        "Name[de]": "Speicherbelegung",
        "Name[en_GB]": "Memory Usage",
        "Name[es]": "Uso de memoria",
        "Name[et]": "Mälukasutus",
        "Name[eu]": "Memoria erabilera",
        "Name[fi]": "Muistin käyttö",
        "Name[fr]": "Utilisation de la mémoire",
        "Name[hi]": "मेमोरी उपयोग",
        "Name[hsb]": "Wužiwanje pomjatka",
        "Name[hu]": "Memóriahasználat",
        "Name[ia]": "Uso de Memoria",
        "Name[id]": "Penggunaan Memori",
        "Name[it]": "Utilizzo memoria",
        "Name[ko]": "메모리 사용량",
        "Name[lt]": "Atminties naudojimas",
        "Name[ml]": "മെമ്മറി ഉപയോഗം",
        "Name[nl]": "Geheugengebruik",
        "Name[nn]": "Minnebruk",
        "Name[pa]": "ਮੈਮੋਰੀ ਦੀ ਵਰਤੋਂ",
        "Name[pl]": "Wykorzystanie pamięci",
        "Name[pt]": "Utilização da Memória",
        "Name[pt_BR]": "Uso da memória",
        "Name[ro]": "Utilizare memorie",
        "Name[ru]": "Использование памяти",
        "Name[sk]": "Využitie pamäte",
        "Name[sl]": "Raba pomnilnika",
        "Name[sv]": "Minnesanvändning",
        "Name[ta]": "நினைவு பயன்பாட்டு",
        "Name[tg]": "Истифодабарии ҳофиза",
        "Name[tr]": "Bellek Kullanımı",
        "Name[uk]": "Використання пам'яті",
        "Name[vi]": "Lượng dùng bộ nhớ",
        "Name[x-test]": "xxMemory Usagexx",
        "Name[zh_CN]": "内存使用情况",
        "Name[zh_TW]": "記憶體用量",
        "ServiceTypes": [
            "Plasma/Applet"
        ],
        "Version": "1.0",
        "Website": "https://www.kde.org/plasma-desktop"
    },
    "X-Plasma-API": "declarativeappletscript",
    "X-Plasma-MainScript": "ui/main.qml",
    "X-Plasma-Provides": [
        "org.kde.plasma.systemmonitor"
    ],
    "X-Plasma-RootPath": "org.kde.plasma.systemmonitor"
}
